{
  "object_kind": "build",
  "ref": "master",
  "tag": false,
  "before_sha": "edcba",
  "sha": "abcde",
  "retries_count": 0,
  "build_id": 47500,
  "build_name": "junit",
  "build_stage": "test",
  "build_status": "failed",
  "build_created_at": "2024-11-02 18:29:00 UTC",
  "build_started_at": "2024-11-02 18:29:01 UTC",
  "build_finished_at": "2024-11-02 18:29:06 UTC",
  "build_duration": 4.543246,
  "build_queued_duration": 1.08065,
  "build_allow_failure": false,
  "build_failure_reason": "script_failure",
  "pipeline_id": 32685,
  "runner": {
    "id": 17,
    "description": "",
    "runner_type": "instance_type",
    "active": true,
    "is_shared": true,
    "tags": []
  },
  "project_id": 25078,
  "project_name": "joe/proj-name",
  "user": {
    "id": 742,
    "name": "Goddard, Jamie",
    "username": "jg2078",
    "avatar_url": "https://secure.gravatar.com/avatar/abc",
    "email": "[REDACTED]"
  },
  "commit": {
    "id": 32685,
    "name": null,
    "sha": "abcde",
    "message": "message name",
    "author_name": "joe",
    "author_email": "joe@gmail.com",
    "author_url": "mailto:joe@gmail.com",
    "status": "failed",
    "duration": 4,
    "started_at": "2024-11-02 18:29:01 UTC",
    "finished_at": "2024-11-02 18:29:06 UTC"
  },
  "repository": {
    "name": "proj-name",
    "url": "git@example.com:joe/proj-name.git",
    "description": null,
    "homepage": "https://example.com/joe/proj-name",
    "git_http_url": "https://example.com/joe/proj-name.git",
    "git_ssh_url": "git@example.com:joe/proj-name.git",
    "visibility_level": 0
  },
  "project": {
    "id": 25078,
    "name": "proj-name",
    "description": null,
    "web_url": "https://example.com/joe/proj-name",
    "avatar_url": null,
    "git_ssh_url": "git@example.com:joe/proj-name.git",
    "git_http_url": "https://example.com/joe/proj-name.git",
    "namespace": "Joe",
    "visibility_level": 0,
    "path_with_namespace": "joe/proj-name",
    "default_branch": "master",
    "ci_config_path": null
  },
  "environment": null
}
