{
  "name": "v5.0.0",
  "message": null,
  "target": "60a8ff033665e1207714d6670fcd7b65304ec02f",
  "commit": {
    "id": "60a8ff033665e1207714d6670fcd7b65304ec02f",
    "short_id": "60a8ff03",
    "title": "Initial commit",
    "created_at": "2017-07-26T11:08:53.000+02:00",
    "parent_ids": [
      "f61c062ff8bcbdb00e0a1b3317a91aed6ceee06b"
    ],
    "message": "v5.0.0\n",
    "author_name": "Arthur Verschaeve",
    "author_email": "contact@arthurverschaeve.be",
    "authored_date": "2015-02-01T21:56:31.000+01:00",
    "committer_name": "Arthur Verschaeve",
    "committer_email": "contact@arthurverschaeve.be",
    "committed_date": "2015-02-01T21:56:31.000+01:00"
  },
  "release": null,
  "protected": false
}
