{
  "id": 1,
  "url": "http://example.com/hook",
  "project_id": 3,
  "push_events": true,
  "push_events_branch_filter": "",
  "issues_events": true,
  "confidential_issues_events": true,
  "merge_requests_events": true,
  "tag_push_events": true,
  "note_events": true,
  "confidential_note_events": true,
  "job_events": true,
  "pipeline_events": true,
  "wiki_page_events": true,
  "deployment_events": true,
  "releases_events": true,
  "enable_ssl_verification": true,
  "created_at": "2012-10-12T17:04:47Z"
}
