[
  {
    "id": 3,
    "description": null,
    "default_branch": "master",
    "visibility": "internal",
    "ssh_url_to_repo": "git@example.com:diaspora/diaspora-project-site.git",
    "http_url_to_repo": "http://example.com/diaspora/diaspora-project-site.git",
    "web_url": "http://example.com/diaspora/diaspora-project-site",
    "readme_url": "http://example.com/diaspora/diaspora-project-site/blob/master/README.md",
    "tag_list": [
      "example",
      "disapora project"
    ],
    "topics": [
      "example",
      "disapora project"
    ],
    "name": "Diaspora Project Site",
    "name_with_namespace": "Diaspora / Diaspora Project Site",
    "path": "diaspora-project-site",
    "path_with_namespace": "diaspora/diaspora-project-site",
    "issues_enabled": true,
    "open_issues_count": 1,
    "merge_requests_enabled": true,
    "jobs_enabled": true,
    "wiki_enabled": true,
    "snippets_enabled": false,
    "can_create_merge_request_in": true,
    "resolve_outdated_diff_discussions": false,
    "container_registry_enabled": false,
    "container_registry_access_level": "disabled",
    "created_at": "2013-09-30T13:46:02Z",
    "last_activity_at": "2013-09-30T13:46:02Z",
    "creator_id": 3,
    "namespace": {
      "id": 3,
      "name": "Diaspora",
      "path": "diaspora",
      "kind": "group",
      "full_path": "diaspora"
    },
    "import_status": "none",
    "archived": true,
    "avatar_url": "http://example.com/uploads/project/avatar/3/uploads/avatar.png",
    "shared_runners_enabled": true,
    "forks_count": 0,
    "star_count": 1,
    "public_jobs": true,
    "shared_with_groups": [],
    "only_allow_merge_if_pipeline_succeeds": false,
    "allow_merge_on_skipped_pipeline": false,
    "restrict_user_defined_variables": false,
    "only_allow_merge_if_all_discussions_are_resolved": false,
    "remove_source_branch_after_merge": false,
    "request_access_enabled": false,
    "merge_method": "merge",
    "squash_option": "default_on",
    "autoclose_referenced_issues": true,
    "suggestion_commit_message": null,
    "container_registry_image_prefix": "registry.example.com/diaspora/diaspora-project-site",
    "_links": {
      "self": "http://example.com/api/v4/projects",
      "issues": "http://example.com/api/v4/projects/1/issues",
      "merge_requests": "http://example.com/api/v4/projects/1/merge_requests",
      "repo_branches": "http://example.com/api/v4/projects/1/repository_branches",
      "labels": "http://example.com/api/v4/projects/1/labels",
      "events": "http://example.com/api/v4/projects/1/events",
      "members": "http://example.com/api/v4/projects/1/members"
    }
  }
]
